<?xml version="1.0" encoding="UTF-8" standalone="no"?>
<!-- Created with Inkscape (http://www.inkscape.org/) -->

<svg
   xmlns:dc="http://purl.org/dc/elements/1.1/"
   xmlns:cc="http://creativecommons.org/ns#"
   xmlns:rdf="http://www.w3.org/1999/02/22-rdf-syntax-ns#"
   xmlns:svg="http://www.w3.org/2000/svg"
   xmlns="http://www.w3.org/2000/svg"
   xmlns:sodipodi="http://sodipodi.sourceforge.net/DTD/sodipodi-0.dtd"
   xmlns:inkscape="http://www.inkscape.org/namespaces/inkscape"
   width="24px"
   height="24px"
   viewBox="0 0 24 24"
   version="1.1"
   id="SVGRoot"
   inkscape:version="0.92.4 (5da689c313, 2019-01-14)"
   sodipodi:docname="trash-bin.svg">
  <defs
     id="defs832" />
  <sodipodi:namedview
     id="base"
     pagecolor="#ffffff"
     bordercolor="#666666"
     borderopacity="1.0"
     inkscape:pageopacity="0.0"
     inkscape:pageshadow="2"
     inkscape:zoom="21.333333"
     inkscape:cx="3.2361759"
     inkscape:cy="11.930885"
     inkscape:document-units="px"
     inkscape:current-layer="layer1"
     showgrid="false"
     inkscape:window-width="1866"
     inkscape:window-height="1025"
     inkscape:window-x="54"
     inkscape:window-y="27"
     inkscape:window-maximized="1"
     inkscape:grid-bbox="true" />
  <metadata
     id="metadata835">
    <rdf:RDF>
      <cc:Work
         rdf:about="">
        <dc:format>image/svg+xml</dc:format>
        <dc:type
           rdf:resource="http://purl.org/dc/dcmitype/StillImage" />
        <dc:title></dc:title>
      </cc:Work>
    </rdf:RDF>
  </metadata>
  <g
     inkscape:label="Calque 1"
     inkscape:groupmode="layer"
     id="layer1">
    <rect
       style="fill:#323232;stroke-width:0.04654157"
       x="1.6576381"
       y="2.7914362"
       width="20.850622"
       height="3.7233253"
       rx="1.4893302"
       ry="1.4893302"
       id="rect4" />
    <path
       inkscape:connector-curvature="0"
       style="fill:#323232;stroke-width:0.04654157"
       d="m 3.4424929,7.5504504 a 0.37233255,0.37233255 0 0 0 -0.372329,0.410965 l 1.224505,11.7545326 a 0.06981235,0.06981235 0 0 0 0,0.01027 2.2339953,2.2339953 0 0 0 2.219574,1.9729 H 17.269532 a 2.2339953,2.2339953 0 0 0 2.218637,-1.9729 v -0.0098 L 20.710817,7.9614404 A 0.37233255,0.37233255 0 0 0 20.33848,7.5504754 Z M 15.02483,15.960043 A 0.74466509,0.74466509 0 1 1 13.971592,17.01282 L 11.892117,14.933338 9.812174,17.01282 A 0.74466509,0.74466509 0 0 1 8.7589359,15.960043 L 10.838879,13.8801 8.7589359,11.800157 a 0.74466509,0.74466509 0 0 1 1.0532381,-1.05277 l 2.079943,2.079483 2.079475,-2.079483 a 0.74466509,0.74466509 0 0 1 1.053238,1.05277 L 12.944887,13.8801 Z"
       id="path6" />
  </g>
</svg>
