<?xml version="1.0" encoding="UTF-8" standalone="no"?>
<!-- Created with Inkscape (http://www.inkscape.org/) -->

<svg
   xmlns:dc="http://purl.org/dc/elements/1.1/"
   xmlns:cc="http://creativecommons.org/ns#"
   xmlns:rdf="http://www.w3.org/1999/02/22-rdf-syntax-ns#"
   xmlns:svg="http://www.w3.org/2000/svg"
   xmlns="http://www.w3.org/2000/svg"
   xmlns:sodipodi="http://sodipodi.sourceforge.net/DTD/sodipodi-0.dtd"
   xmlns:inkscape="http://www.inkscape.org/namespaces/inkscape"
   width="24px"
   height="24px"
   viewBox="0 0 24 24"
   version="1.1"
   id="SVGRoot"
   inkscape:version="0.92.4 (5da689c313, 2019-01-14)"
   sodipodi:docname="folder_icon.svg">
  <defs
     id="defs821" />
  <sodipodi:namedview
     id="base"
     pagecolor="#ffffff"
     bordercolor="#666666"
     borderopacity="1.0"
     inkscape:pageopacity="0.0"
     inkscape:pageshadow="2"
     inkscape:zoom="21.333333"
     inkscape:cx="5.007109"
     inkscape:cy="11.045289"
     inkscape:document-units="px"
     inkscape:current-layer="layer1"
     showgrid="false"
     inkscape:window-width="1866"
     inkscape:window-height="1025"
     inkscape:window-x="54"
     inkscape:window-y="27"
     inkscape:window-maximized="1"
     inkscape:grid-bbox="true" />
  <metadata
     id="metadata824">
    <rdf:RDF>
      <cc:Work
         rdf:about="">
        <dc:format>image/svg+xml</dc:format>
        <dc:type
           rdf:resource="http://purl.org/dc/dcmitype/StillImage" />
        <dc:title></dc:title>
      </cc:Work>
    </rdf:RDF>
  </metadata>
  <g
     inkscape:label="Calque 1"
     inkscape:groupmode="layer"
     id="layer1">
    <g
       transform="matrix(0.04721894,0,0,0.04721894,-0.16469279,-0.68125984)"
       id="Layer_2">
      <path
         style="fill:#0074a8"
         inkscape:connector-curvature="0"
         d="M 491,326 V 153.845 123.788 92.143 C 491,79.021 480.259,68 467.137,68 H 341.13 c -9.287,0 -17.723,5.603 -21.596,14.044 l -12.709,27.903 C 302.952,118.388 294.516,124 285.229,124 H 67.538 C 54.416,124 44,134.426 44,147.549 V 363.912 C 44,377.034 54.416,388 67.538,388 h 399.599 c 0.628,0 1.248,-0.36 1.863,-0.408 V 433 h 0.342 c 0,6 4.877,10.636 10.829,10.636 5.952,0 10.829,-4.967 10.829,-10.919 z"
         id="path2" />
    </g>
    <g
       transform="matrix(0.04721894,0,0,0.04721894,-0.16469279,-0.68125984)"
       id="Layer_3">
      <path
         style="fill:#59cafc"
         inkscape:connector-curvature="0"
         d="M 480.171,443.636 C 474.219,443.636 469.342,439 469.342,433 H 469 V 403.665 326 210.181 C 469,197.058 458.661,186 445.539,186 H 45.94 C 32.818,186 22,197.058 22,210.181 V 239.304 449.37 C 22,462.492 32.818,473 45.94,473 h 399.599 c 1.385,0 2.741,-0.06 4.061,-0.288 1.639,0.227 3.31,0.385 5.012,0.385 20.04,0 36.136,-16.229 36.136,-36.269 0,-0.534 -0.036,-1.058 -0.058,-1.586 -1.147,4.766 -5.435,8.394 -10.519,8.394 z"
         id="path5" />
    </g>
  </g>
</svg>
