<?xml version="1.0" encoding="UTF-8"?>
<svg width="512" height="512" style="-ms-transform:rotate(360deg);-webkit-transform:rotate(360deg);transform:rotate(360deg)" version="1.1" viewBox="0 0 512 512" xmlns="http://www.w3.org/2000/svg" xmlns:cc="http://creativecommons.org/ns#" xmlns:dc="http://purl.org/dc/elements/1.1/" xmlns:rdf="http://www.w3.org/1999/02/22-rdf-syntax-ns#">
 <metadata>
  <rdf:RDF>
   <cc:Work rdf:about="">
    <dc:format>image/svg+xml</dc:format>
    <dc:type rdf:resource="http://purl.org/dc/dcmitype/StillImage"/>
    <dc:title/>
   </cc:Work>
  </rdf:RDF>
 </metadata>
 <path d="m376.75 349.1c-13.531 0-24.5-10.969-24.5-24.5v-142.66c0-48.083-39.119-87.203-87.203-87.203-48.083 0-87.203 39.119-87.203 87.203v82.977c0 13.531-10.969 24.5-24.5 24.5s-24.5-10.969-24.5-24.5v-82.977c0-75.103 61.1-136.2 136.2-136.2s136.2 61.1 136.2 136.2v142.66c0 13.531-10.969 24.5-24.5 24.5z" fill="#B1B4B5"/>
 <path d="m414.12 497.46h-298.14c-27.835 0-50.4-22.565-50.4-50.4v-172.37c0-27.835 22.565-50.4 50.4-50.4h298.14c27.835 0 50.4 22.565 50.4 50.4v172.37c0 27.836-22.565 50.401-50.4 50.401z" fill="#FFB636"/>
 <path d="m109.31 456.84h-2.525c-7.953 0-14.4-6.447-14.4-14.4v-163.13c0-7.953 6.447-14.4 14.4-14.4h2.525c7.953 0 14.4 6.447 14.4 14.4v163.13c0 7.953-6.447 14.4-14.4 14.4z" fill="#FFD469"/>
</svg>
