<?xml version="1.0" encoding="UTF-8" standalone="no"?>
<!-- Created with Inkscape (http://www.inkscape.org/) -->

<svg
   xmlns:dc="http://purl.org/dc/elements/1.1/"
   xmlns:cc="http://creativecommons.org/ns#"
   xmlns:rdf="http://www.w3.org/1999/02/22-rdf-syntax-ns#"
   xmlns:svg="http://www.w3.org/2000/svg"
   xmlns="http://www.w3.org/2000/svg"
   xmlns:sodipodi="http://sodipodi.sourceforge.net/DTD/sodipodi-0.dtd"
   xmlns:inkscape="http://www.inkscape.org/namespaces/inkscape"
   width="24px"
   height="24px"
   viewBox="0 0 24 24"
   version="1.1"
   id="SVGRoot"
   inkscape:version="0.92.4 (5da689c313, 2019-01-14)"
   sodipodi:docname="cancel.svg">
  <defs
     id="defs822" />
  <sodipodi:namedview
     id="base"
     pagecolor="#ffffff"
     bordercolor="#666666"
     borderopacity="1.0"
     inkscape:pageopacity="0.0"
     inkscape:pageshadow="2"
     inkscape:zoom="21.333333"
     inkscape:cx="8.6600277"
     inkscape:cy="9.572592"
     inkscape:document-units="px"
     inkscape:current-layer="layer1"
     showgrid="false"
     inkscape:window-width="1866"
     inkscape:window-height="1025"
     inkscape:window-x="54"
     inkscape:window-y="27"
     inkscape:window-maximized="1"
     inkscape:grid-bbox="true" />
  <metadata
     id="metadata825">
    <rdf:RDF>
      <cc:Work
         rdf:about="">
        <dc:format>image/svg+xml</dc:format>
        <dc:type
           rdf:resource="http://purl.org/dc/dcmitype/StillImage" />
        <dc:title></dc:title>
      </cc:Work>
    </rdf:RDF>
  </metadata>
  <g
     inkscape:label="Calque 1"
     inkscape:groupmode="layer"
     id="layer1">
    <path
       d="m 21.534812,11.781875 -5,-6.0000003 a 1,1 0 0 0 -0.77,-0.36 H 4.7648125 A 3,3 0 0 0 1.7648124,8.4218746 v 8.0000004 a 3,3 0 0 0 3.0000001,3 H 15.764812 a 1,1 0 0 0 0.77,-0.36 l 5,-6 a 1,1 0 0 0 0,-1.28 z m -6.24,5.64 H 4.7648125 a 1,1 0 0 1 -1,-1 V 8.4218746 a 1,1 0 0 1 1,-1 H 15.294812 l 4.17,5.0000004 z m -2.82,-7.71 a 1,1 0 0 0 -1.419999,0 l -1.2900003,1.3 -1.2900002,-1.3 a 1.0040917,1.0040917 0 1 0 -1.42,1.42 l 1.3,1.29 -1.3,1.29 a 1,1 0 0 0 0,1.42 1,1 0 0 0 1.42,0 l 1.2900002,-1.3 1.2900003,1.3 a 1,1 0 0 0 1.419999,0 1,1 0 0 0 0,-1.42 l -1.299999,-1.29 1.299999,-1.29 a 1,1 0 0 0 0,-1.42 z"
       id="path4"
       inkscape:connector-curvature="0"
       style="fill:#323232" />
  </g>
</svg>
