<?xml version="1.0" encoding="UTF-8" standalone="no"?>
<!-- Created with Inkscape (http://www.inkscape.org/) -->

<svg
   xmlns:dc="http://purl.org/dc/elements/1.1/"
   xmlns:cc="http://creativecommons.org/ns#"
   xmlns:rdf="http://www.w3.org/1999/02/22-rdf-syntax-ns#"
   xmlns:svg="http://www.w3.org/2000/svg"
   xmlns="http://www.w3.org/2000/svg"
   xmlns:sodipodi="http://sodipodi.sourceforge.net/DTD/sodipodi-0.dtd"
   xmlns:inkscape="http://www.inkscape.org/namespaces/inkscape"
   width="8.5019445mm"
   height="8.5019445mm"
   viewBox="0 0 8.5019443 8.5019443"
   version="1.1"
   id="svg8295"
   inkscape:version="0.92.4 (5da689c313, 2019-01-14)"
   sodipodi:docname="keep-trace-and-add-new-trace-check-button.svg">
  <defs
     id="defs8289">
    <marker
       inkscape:isstock="true"
       style="overflow:visible"
       id="Arrow1Send"
       refX="0"
       refY="0"
       orient="auto"
       inkscape:stockid="Arrow1Send">
      <path
         inkscape:connector-curvature="0"
         transform="matrix(-0.2,0,0,-0.2,-1.2,0)"
         style="fill:#f7fc00;fill-opacity:1;fill-rule:evenodd;stroke:#f7fc00;stroke-width:1.00000003pt;stroke-opacity:1"
         d="M 0,0 5,-5 -12.5,0 5,5 Z"
         id="path1940" />
    </marker>
    <marker
       inkscape:isstock="true"
       style="overflow:visible"
       id="marker5261"
       refX="0"
       refY="0"
       orient="auto"
       inkscape:stockid="Arrow1Mend">
      <path
         inkscape:connector-curvature="0"
         transform="matrix(-0.4,0,0,-0.4,-4,0)"
         style="fill:#f7fc00;fill-opacity:1;fill-rule:evenodd;stroke:#f7fc00;stroke-width:1.00000003pt;stroke-opacity:1"
         d="M 0,0 5,-5 -12.5,0 5,5 Z"
         id="path5259" />
    </marker>
    <marker
       inkscape:isstock="true"
       style="overflow:visible"
       id="marker5261-3"
       refX="0"
       refY="0"
       orient="auto"
       inkscape:stockid="Arrow1Mend">
      <path
         inkscape:connector-curvature="0"
         transform="matrix(-0.4,0,0,-0.4,-4,0)"
         style="fill:#f7fc00;fill-opacity:1;fill-rule:evenodd;stroke:#f7fc00;stroke-width:1.00000003pt;stroke-opacity:1"
         d="M 0,0 5,-5 -12.5,0 5,5 Z"
         id="path5259-6" />
    </marker>
    <marker
       inkscape:isstock="true"
       style="overflow:visible"
       id="marker6076"
       refX="0"
       refY="0"
       orient="auto"
       inkscape:stockid="Arrow1Mend">
      <path
         inkscape:connector-curvature="0"
         transform="matrix(-0.4,0,0,-0.4,-4,0)"
         style="fill:#f7fc00;fill-opacity:1;fill-rule:evenodd;stroke:#f7fc00;stroke-width:1.00000003pt;stroke-opacity:1"
         d="M 0,0 5,-5 -12.5,0 5,5 Z"
         id="path6074" />
    </marker>
    <marker
       inkscape:stockid="Arrow1Mend"
       orient="auto"
       refY="0"
       refX="0"
       id="marker1079"
       style="overflow:visible"
       inkscape:isstock="true">
      <path
         id="path1077"
         d="M 0,0 5,-5 -12.5,0 5,5 Z"
         style="fill:#f7fc00;fill-opacity:1;fill-rule:evenodd;stroke:#f7fc00;stroke-width:1.00000003pt;stroke-opacity:1"
         transform="matrix(-0.4,0,0,-0.4,-4,0)"
         inkscape:connector-curvature="0" />
    </marker>
  </defs>
  <sodipodi:namedview
     id="base"
     pagecolor="#ffffff"
     bordercolor="#666666"
     borderopacity="1.0"
     inkscape:pageopacity="0.0"
     inkscape:pageshadow="2"
     inkscape:zoom="2.8982456"
     inkscape:cx="-5.1282266"
     inkscape:cy="20.539025"
     inkscape:document-units="mm"
     inkscape:current-layer="layer1"
     showgrid="false"
     fit-margin-top="0"
     fit-margin-left="0"
     fit-margin-right="0"
     fit-margin-bottom="0" />
  <metadata
     id="metadata8292">
    <rdf:RDF>
      <cc:Work
         rdf:about="">
        <dc:format>image/svg+xml</dc:format>
        <dc:type
           rdf:resource="http://purl.org/dc/dcmitype/StillImage" />
        <dc:title></dc:title>
      </cc:Work>
    </rdf:RDF>
  </metadata>
  <g
     inkscape:label="Layer 1"
     inkscape:groupmode="layer"
     id="layer1"
     transform="translate(-104.06032,-118.76452)">
    <g
       id="g1397"
       transform="matrix(0.26458333,0,0,0.26458333,52.553238,57.487926)"
       inkscape:export-xdpi="95.601578"
       inkscape:export-ydpi="95.601578">
      <rect
         inkscape:export-ydpi="47.800789"
         inkscape:export-xdpi="47.800789"
         y="231.66325"
         x="194.73909"
         height="32"
         width="32"
         id="rect1258"
         style="opacity:1;fill:#ffffff;fill-opacity:0;fill-rule:nonzero;stroke:#000000;stroke-width:0.13333333;stroke-linecap:round;stroke-linejoin:round;stroke-miterlimit:4;stroke-dasharray:none;stroke-dashoffset:0;stroke-opacity:1;paint-order:markers stroke fill" />
      <path
         inkscape:export-ydpi="47.800789"
         inkscape:export-xdpi="47.800789"
         sodipodi:nodetypes="ccccccccc"
         inkscape:connector-curvature="0"
         id="path1260"
         d="m 201.38884,261.98672 3.00114,-24.07044 3.00115,24.07044 h 3.00115 l 3.00114,-19.1759 3.00114,19.1759 h 3.00115 l 3.00114,-12.73923 3.00115,12.73923"
         style="fill:none;fill-rule:evenodd;stroke:#ff0606;stroke-width:2;stroke-linecap:butt;stroke-linejoin:miter;stroke-miterlimit:4;stroke-dasharray:none;stroke-opacity:1" />
      <g
         inkscape:export-ydpi="47.800789"
         inkscape:export-xdpi="47.800789"
         transform="translate(-126.34936,-0.5604921)"
         id="g1272">
        <path
           style="fill:none;fill-rule:evenodd;stroke:#000000;stroke-width:3;stroke-linecap:butt;stroke-linejoin:miter;stroke-miterlimit:4;stroke-dasharray:none;stroke-opacity:1"
           d="m 344.60628,234.62796 v 12.77598"
           id="path1266"
           inkscape:connector-curvature="0" />
        <path
           inkscape:connector-curvature="0"
           id="path1268"
           d="M 350.99427,241.01595 H 338.21829"
           style="fill:none;fill-rule:evenodd;stroke:#000000;stroke-width:3;stroke-linecap:butt;stroke-linejoin:miter;stroke-miterlimit:4;stroke-dasharray:none;stroke-opacity:1" />
      </g>
      <path
         style="fill:none;fill-rule:evenodd;stroke:#0b00ff;stroke-width:2;stroke-linecap:butt;stroke-linejoin:miter;stroke-miterlimit:4;stroke-dasharray:none;stroke-opacity:1"
         d="m 196.92504,261.98672 3.00114,-24.07044 3.00115,24.07044 h 3.00115 l 3.00114,-19.1759 3.00114,19.1759 h 3.00115 l 3.00114,-12.73923 3.00115,12.73923"
         id="path1343"
         inkscape:connector-curvature="0"
         sodipodi:nodetypes="ccccccccc"
         inkscape:export-xdpi="47.800789"
         inkscape:export-ydpi="47.800789" />
    </g>
  </g>
</svg>
