<?xml version="1.0" encoding="UTF-8" standalone="no"?>
<!-- Created with Inkscape (http://www.inkscape.org/) -->

<svg
   xmlns:dc="http://purl.org/dc/elements/1.1/"
   xmlns:cc="http://creativecommons.org/ns#"
   xmlns:rdf="http://www.w3.org/1999/02/22-rdf-syntax-ns#"
   xmlns:svg="http://www.w3.org/2000/svg"
   xmlns="http://www.w3.org/2000/svg"
   xmlns:sodipodi="http://sodipodi.sourceforge.net/DTD/sodipodi-0.dtd"
   xmlns:inkscape="http://www.inkscape.org/namespaces/inkscape"
   width="1.4685168mm"
   height="3.6504412mm"
   viewBox="0 0 1.4685168 3.6504412"
   version="1.1"
   id="svg56"
   inkscape:version="0.92.3 (2405546, 2018-03-11)"
   sodipodi:docname="left-mouse-button.svg">
  <defs
     id="defs50" />
  <sodipodi:namedview
     id="base"
     pagecolor="#ffffff"
     bordercolor="#666666"
     borderopacity="1.0"
     inkscape:pageopacity="0.0"
     inkscape:pageshadow="2"
     inkscape:zoom="32.45602"
     inkscape:cx="3.5876623"
     inkscape:cy="5.6114719"
     inkscape:document-units="mm"
     inkscape:current-layer="layer1"
     showgrid="false"
     fit-margin-top="0"
     fit-margin-left="0"
     fit-margin-right="0"
     fit-margin-bottom="0" />
  <metadata
     id="metadata53">
    <rdf:RDF>
      <cc:Work
         rdf:about="">
        <dc:format>image/svg+xml</dc:format>
        <dc:type
           rdf:resource="http://purl.org/dc/dcmitype/StillImage" />
        <dc:title />
      </cc:Work>
    </rdf:RDF>
  </metadata>
  <g
     inkscape:label="Layer 1"
     inkscape:groupmode="layer"
     id="layer1"
     transform="translate(-116.43836,-134.91288)">
    <path
       inkscape:connector-curvature="0"
       style="color:#000000;display:inline;overflow:visible;visibility:visible;fill:none;fill-rule:evenodd;stroke:#000000;stroke-width:0.09150597;stroke-linecap:butt;stroke-linejoin:round;stroke-miterlimit:4;stroke-dasharray:none;stroke-dashoffset:0;stroke-opacity:1;marker:none;enable-background:accumulate"
       d="m 116.9255,135.02582 c 0.0768,-0.0439 0.16015,-0.0672 0.24733,-0.0672 0.38014,0 0.68829,0.44195 0.68829,1.11497 0,0.67302 -0.30815,1.21861 -0.68829,1.21861 -0.33555,0 -0.61502,-0.42513 -0.67595,-0.98777"
       id="path4543" />
    <path
       sodipodi:nodetypes="caac"
       inkscape:connector-curvature="0"
       id="path4511"
       d="m 117.18412,137.29221 c 0,0 0.59329,0.22209 0.5416,0.45134 -0.0598,0.2653 -0.66967,-0.041 -0.79028,0.2028 -0.0942,0.19047 0.24868,0.58704 0.24868,0.58704"
       style="fill:none;fill-rule:evenodd;stroke:#000000;stroke-width:0.09150597;stroke-linecap:butt;stroke-linejoin:miter;stroke-miterlimit:4;stroke-dasharray:none;stroke-opacity:1" />
    <g
       style="fill:#2a292a;fill-opacity:1;stroke:#000000;stroke-width:2.33593965;stroke-miterlimit:4;stroke-dasharray:none;stroke-opacity:1"
       id="g4559"
       transform="matrix(0.03917309,0,0,0.03917309,115.83726,133.39825)">
      <path
         inkscape:connector-curvature="0"
         id="path4555"
         d="m 16.827461,74.188394 c -0.206648,-1.908118 -0.314834,-3.87819 -0.314834,-5.892999 0,-13.240531 4.672126,-22.977628 11.256719,-26.747397"
         style="fill:#2a292a;fill-opacity:1;fill-rule:evenodd;stroke:#000000;stroke-width:2.33593965;stroke-linecap:butt;stroke-linejoin:miter;stroke-miterlimit:4;stroke-dasharray:none;stroke-opacity:1" />
      <path
         inkscape:connector-curvature="0"
         id="path4513"
         d="M 27.770746,41.41199 V 74.187965 H 16.791631"
         style="fill:#2a292a;fill-opacity:1;fill-rule:evenodd;stroke:#000000;stroke-width:2.33593965;stroke-linecap:butt;stroke-linejoin:miter;stroke-miterlimit:4;stroke-dasharray:none;stroke-opacity:1" />
    </g>
    <path
       sodipodi:nodetypes="cc"
       inkscape:connector-curvature="0"
       id="path4517"
       d="m 116.95604,136.30443 h 0.87845"
       style="fill:none;fill-rule:evenodd;stroke:#000000;stroke-width:0.09150597;stroke-linecap:butt;stroke-linejoin:miter;stroke-miterlimit:4;stroke-dasharray:none;stroke-opacity:1" />
  </g>
</svg>
