<?xml version="1.0" encoding="UTF-8" standalone="no"?>
<!-- Created with Inkscape (http://www.inkscape.org/) -->

<svg
   xmlns:dc="http://purl.org/dc/elements/1.1/"
   xmlns:cc="http://creativecommons.org/ns#"
   xmlns:rdf="http://www.w3.org/1999/02/22-rdf-syntax-ns#"
   xmlns:svg="http://www.w3.org/2000/svg"
   xmlns="http://www.w3.org/2000/svg"
   xmlns:xlink="http://www.w3.org/1999/xlink"
   xmlns:sodipodi="http://sodipodi.sourceforge.net/DTD/sodipodi-0.dtd"
   xmlns:inkscape="http://www.inkscape.org/namespaces/inkscape"
   width="24px"
   height="24px"
   viewBox="0 0 24 24"
   version="1.1"
   id="SVGRoot"
   inkscape:version="0.92.4 (5da689c313, 2019-01-14)"
   sodipodi:docname="icon_r_package.svg">
  <defs
     id="defs967">
    <radialGradient
       id="radialGradient3718"
       cx="5"
       cy="41.5"
       r="5"
       gradientTransform="matrix(0.99002,0,0,1.1,32.115,-5.15)"
       gradientUnits="userSpaceOnUse"
       xlink:href="#linearGradient3681" />
    <linearGradient
       id="linearGradient3681">
      <stop
         offset="0"
         id="stop2" />
      <stop
         stop-opacity="0"
         offset="1"
         id="stop4" />
    </linearGradient>
    <radialGradient
       id="radialGradient3720"
       cx="5"
       cy="41.5"
       r="5"
       gradientTransform="matrix(0.99001,0,0,1.1,-14.885,-86.15)"
       gradientUnits="userSpaceOnUse"
       xlink:href="#linearGradient3681" />
    <linearGradient
       id="linearGradient3722"
       x1="17.554001"
       x2="17.554001"
       y1="46"
       y2="35"
       gradientTransform="matrix(1.1795,0,0,1,-4.2194,0)"
       gradientUnits="userSpaceOnUse">
      <stop
         stop-opacity="0"
         offset="0"
         id="stop31" />
      <stop
         offset=".5"
         id="stop33" />
      <stop
         stop-opacity="0"
         offset="1"
         id="stop35" />
    </linearGradient>
    <linearGradient
       id="linearGradient3845"
       x1="24.99"
       x2="23.452"
       y1="49.424"
       y2="14.383"
       gradientTransform="matrix(1,0,0,1.3299,0,-8.6644)"
       gradientUnits="userSpaceOnUse">
      <stop
         stop-color="#eaba6f"
         offset="0"
         id="stop12" />
      <stop
         stop-color="#b97a1b"
         offset="1"
         id="stop14" />
    </linearGradient>
    <linearGradient
       id="linearGradient4565"
       x1="23.452"
       x2="43.007"
       y1="30.555"
       y2="45.933998"
       gradientUnits="userSpaceOnUse"
       xlink:href="#linearGradient4559" />
    <linearGradient
       id="linearGradient4559">
      <stop
         stop-color="#fff"
         offset="0"
         id="stop7" />
      <stop
         stop-color="#fff"
         stop-opacity="0"
         offset="1"
         id="stop9" />
    </linearGradient>
    <linearGradient
       id="linearGradient4538"
       x1="35.188"
       x2="26.562"
       y1="17.5"
       y2="17.438"
       gradientUnits="userSpaceOnUse">
      <stop
         offset="0"
         id="stop24" />
      <stop
         stop-opacity="0"
         offset="1"
         id="stop26" />
    </linearGradient>
    <linearGradient
       id="linearGradient4766"
       x1="28.062"
       x2="23.938"
       y1="19"
       y2="19"
       gradientTransform="matrix(0.99705,0,0,0.87847,0.067764,2.4307)"
       gradientUnits="userSpaceOnUse"
       xlink:href="#linearGradient4559" />
    <linearGradient
       id="linearGradient4776"
       x1="23.158001"
       x2="30.007999"
       y1="7.1424999"
       y2="11.474"
       gradientUnits="userSpaceOnUse">
      <stop
         stop-color="#fcf3e6"
         offset="0"
         id="stop18" />
      <stop
         stop-color="#fcf3e6"
         stop-opacity="0"
         offset="1"
         id="stop20" />
    </linearGradient>
    <linearGradient
       id="gradientFill-1"
       x1="0.74144"
       x2="590.85999"
       y1="3.6658001"
       y2="593.78998"
       gradientTransform="scale(1.2219,0.81837)"
       gradientUnits="userSpaceOnUse">
      <stop
         stop-color="#cbced0"
         offset="0"
         id="stop38" />
      <stop
         stop-color="#84838b"
         offset="1"
         id="stop40" />
    </linearGradient>
    <linearGradient
       id="gradientFill-2"
       x1="301.03"
       x2="703.07001"
       y1="151.39999"
       y2="553.44"
       gradientTransform="scale(0.98995,1.0102)"
       gradientUnits="userSpaceOnUse">
      <stop
         stop-color="#276dc3"
         offset="0"
         id="stop43" />
      <stop
         stop-color="#165caa"
         offset="1"
         id="stop45" />
    </linearGradient>
  </defs>
  <sodipodi:namedview
     id="base"
     pagecolor="#ffffff"
     bordercolor="#666666"
     borderopacity="1.0"
     inkscape:pageopacity="0.0"
     inkscape:pageshadow="2"
     inkscape:zoom="10.666667"
     inkscape:cx="12"
     inkscape:cy="12"
     inkscape:document-units="px"
     inkscape:current-layer="layer1"
     showgrid="false"
     inkscape:window-width="1866"
     inkscape:window-height="1025"
     inkscape:window-x="54"
     inkscape:window-y="27"
     inkscape:window-maximized="1"
     inkscape:grid-bbox="true" />
  <metadata
     id="metadata970">
    <rdf:RDF>
      <cc:Work
         rdf:about="">
        <dc:format>image/svg+xml</dc:format>
        <dc:type
           rdf:resource="http://purl.org/dc/dcmitype/StillImage" />
        <dc:title></dc:title>
      </cc:Work>
    </rdf:RDF>
  </metadata>
  <g
     inkscape:label="Calque 1"
     inkscape:groupmode="layer"
     id="layer1">
    <g
       transform="matrix(0.56419154,0,0,0.56419154,-1.0710551,-1.9053224)"
       id="g88">
      <g
         style="opacity:0.4"
         transform="matrix(1,0,0,0.81818,-3.3765e-6,7.3636)"
         id="g58">
        <rect
           style="opacity:1;fill:url(#radialGradient3718)"
           x="37.064999"
           y="35"
           width="4.9352002"
           height="11"
           id="rect52" />
        <rect
           style="opacity:1;fill:url(#radialGradient3720)"
           transform="scale(-1)"
           x="-9.9351997"
           y="-46"
           width="4.9352002"
           height="11"
           id="rect54" />
        <rect
           style="opacity:1;fill:url(#linearGradient3722)"
           x="9.9351997"
           y="35"
           width="27.129999"
           height="11"
           id="rect56" />
      </g>
      <g
         id="g66">
        <path
           style="color:#000000;display:block;fill:url(#linearGradient3845);stroke:#a0670c"
           inkscape:connector-curvature="0"
           d="m 11.762,11.65 h 11.27 11.735 c 1.343,0 2.1741,0.50542 2.7366,1.8944 l 1.9375,5.8301 v 20.619 c 0,1.3265 -1.0812,2.3944 -2.4241,2.3944 H 9.887 c -1.343,0 -2.4241,-1.0679 -2.4241,-2.3944 l 0.097656,-20.595 1.875,-5.9551 c 0.375,-1.0765 0.98351,-1.7929 2.3265,-1.7929 z"
           display="block"
           id="path60" />
        <path
           style="color:#000000;display:block;opacity:0.50548999;fill:none;stroke:url(#linearGradient4565)"
           inkscape:connector-curvature="0"
           d="m 12.493,12.613 h 21.566 c 1.259,0 2.0382,0.47377 2.5655,1.7758 l 1.8163,5.465 v 19.703 c 0.09944,1.3484 -0.55016,1.864 -1.8644,1.8529 L 10.2234,41.3833 C 9.4588,41.342142 9.49228,41.49084 8.8153,40.91669 8.49798,40.64757 8.39632,40.1525 8.45156,39.56439 l 0.011048,-19.773 1.7577,-5.5197 c 0.35155,-1.0091 1.0135,-1.6586 2.2725,-1.6586 z"
           display="block"
           id="path62" />
        <path
           style="color:#000000;opacity:0.528;fill-opacity:0.84666999;fill-rule:evenodd"
           inkscape:connector-curvature="0"
           d="m 8.4624,19.791 14.538,0.20882 0.02467,-4.4372 -0.0066,-0.37494 0.0261,-3.0628 -0.29417,-1.07e-4 -0.125,6.875 z"
           id="path64" />
      </g>
      <g
         style="fill-rule:evenodd"
         id="g80">
        <path
           style="color:#000000;fill:#f5ddb8"
           inkscape:connector-curvature="0"
           d="m 8.4624,19.791 14.163,-0.75993 0.125,-6.9062 -0.46875,6.4062 -12.969,0.90625 z"
           id="path68" />
        <path
           style="color:#000000;fill:#dcbd8e"
           inkscape:connector-curvature="0"
           d="M 22.312,18.562 8,19.687 9.6406,13.4604 c 0.49981,-0.98987 1.3966,-1.3843 2.5625,-1.375 l 10.578,-0.64844 z"
           id="path70" />
        <path
           style="color:#000000;opacity:0.42857002;fill:url(#linearGradient4538)"
           inkscape:connector-curvature="0"
           d="m 23,13.125 v 5.9375 l 14.688,0.0625 -2.2229,-5.9297 -12.465,-0.07031 z"
           id="path72" />
        <path
           style="color:#000000;fill:#c68b31;stroke:#a0670c;stroke-linejoin:round"
           inkscape:connector-curvature="0"
           d="M 39.312,19.375 24.75,12.625 24.5,4.9375 36.074,11.6443 c 0.43076,0.31509 0.90317,0.75525 1.1763,1.2932 l 2.0625,6.4375 z"
           id="path74" />
        <path
           style="color:#000000;opacity:0.46700003;fill:url(#linearGradient4766)"
           inkscape:connector-curvature="0"
           d="m 23,19.122 v 0.87847 H 37.956 L 37.51979,19.122 Z"
           id="path76" />
        <path
           style="color:#000000;fill:url(#linearGradient4776)"
           inkscape:connector-curvature="0"
           d="m 25.191,12.247 -0.17678,-6.4082 9.9879,5.7894 -9.5017,-5.2149 0.17678,5.5243 3.4913,2.1655 -3.9775,-1.8562 z"
           id="path78" />
      </g>
      <g
         style="fill-rule:evenodd"
         transform="matrix(0.036102,0,0,0.036102,10.402,20.263)"
         id="g86">
        <path
           style="fill:url(#gradientFill-1)"
           inkscape:connector-curvature="0"
           d="M 361.45,485.94 C 162.33,485.94 0.9,377.83 0.9,244.47 0.9,111.11 162.32,3 361.45,3 560.57,3 722,111.11 722,244.47 722,377.83 560.58,485.94 361.45,485.94 Z M 416.638,97.41 c -151.35,0 -274.05,73.908 -274.05,165.08 0,91.172 122.7,165.08 274.05,165.08 151.35,0 263.05,-50.529 263.05,-165.08 0,-114.51 -111.7,-165.08 -263.05,-165.08 z"
           id="path82" />
        <path
           style="fill:url(#gradientFill-2)"
           inkscape:connector-curvature="0"
           d="m 550,377 c 0,0 21.822,6.585 34.5,13 4.399,2.226 12.01,6.668 17.5,12.5 5.378,5.712 8,11.5 8,11.5 l 86,145 -139,0.062 -65,-122.06 c 0,0 -13.31,-22.869 -21.5,-29.5 -6.832,-5.531 -9.745,-7.5 -16.5,-7.5 h -33.026 l 0.026,158.97 -123,0.052 v -406.09 h 247 c 0,0 112.5,2.029 112.5,109.06 0,107.031 -107.5,115 -107.5,115 z m -53.5,-135.98 -74.463,-0.048 -0.037,69.05 74.5,-0.024 c 0,0 34.5,-0.107 34.5,-35.125 0,-35.722 -34.5,-33.853 -34.5,-33.853 z"
           id="path84" />
      </g>
    </g>
  </g>
</svg>
