<?xml version="1.0" encoding="UTF-8" standalone="no"?>
<svg
   xmlns:dc="http://purl.org/dc/elements/1.1/"
   xmlns:cc="http://creativecommons.org/ns#"
   xmlns:rdf="http://www.w3.org/1999/02/22-rdf-syntax-ns#"
   xmlns:svg="http://www.w3.org/2000/svg"
   xmlns="http://www.w3.org/2000/svg"
   xmlns:sodipodi="http://sodipodi.sourceforge.net/DTD/sodipodi-0.dtd"
   xmlns:inkscape="http://www.inkscape.org/namespaces/inkscape"
   width="48"
   height="48"
   viewBox="0 0 12.7 12.7"
   version="1.1"
   id="svg8"
   inkscape:version="1.0.2 (e86c870879, 2021-01-15)"
   sodipodi:docname="imputing.svg">
  <defs
     id="defs2">
    <marker
       style="overflow:visible;"
       id="Arrow2Mend"
       refX="0.0"
       refY="0.0"
       orient="auto"
       inkscape:stockid="Arrow2Mend"
       inkscape:isstock="true">
      <path
         transform="scale(0.6) rotate(180) translate(0,0)"
         d="M 8.7185878,4.0337352 L -2.2072895,0.016013256 L 8.7185884,-4.0017078 C 6.9730900,-1.6296469 6.9831476,1.6157441 8.7185878,4.0337352 z "
         style="fill-rule:evenodd;stroke-width:0.625;stroke-linejoin:round;stroke:#000000;stroke-opacity:1;fill:#000000;fill-opacity:1"
         id="path999" />
    </marker>
    <marker
       style="overflow:visible;"
       id="Arrow2Send"
       refX="0.0"
       refY="0.0"
       orient="auto"
       inkscape:stockid="Arrow2Send"
       inkscape:isstock="true">
      <path
         transform="scale(0.3) rotate(180) translate(-2.3,0)"
         d="M 8.7185878,4.0337352 L -2.2072895,0.016013256 L 8.7185884,-4.0017078 C 6.9730900,-1.6296469 6.9831476,1.6157441 8.7185878,4.0337352 z "
         style="fill-rule:evenodd;stroke-width:0.625;stroke-linejoin:round;stroke:#000000;stroke-opacity:1;fill:#000000;fill-opacity:1"
         id="path1005" />
    </marker>
  </defs>
  <sodipodi:namedview
     id="base"
     pagecolor="#ffffff"
     bordercolor="#666666"
     borderopacity="1.0"
     inkscape:pageopacity="0.0"
     inkscape:pageshadow="2"
     inkscape:zoom="7.9195959"
     inkscape:cx="-2.5745986"
     inkscape:cy="30.280441"
     inkscape:document-units="mm"
     inkscape:current-layer="layer1"
     inkscape:document-rotation="0"
     showgrid="true"
     units="px"
     inkscape:window-width="1851"
     inkscape:window-height="1016"
     inkscape:window-x="69"
     inkscape:window-y="27"
     inkscape:window-maximized="1">
    <inkscape:grid
       type="xygrid"
       id="grid884" />
  </sodipodi:namedview>
  <metadata
     id="metadata5">
    <rdf:RDF>
      <cc:Work
         rdf:about="">
        <dc:format>image/svg+xml</dc:format>
        <dc:type
           rdf:resource="http://purl.org/dc/dcmitype/StillImage" />
        <dc:title></dc:title>
      </cc:Work>
    </rdf:RDF>
  </metadata>
  <g
     inkscape:label="Calque 1"
     inkscape:groupmode="layer"
     id="layer1">
    <g
       id="g1504"
       transform="translate(0.26458315,-1.0583329)">
      <g
         id="g1453">
        <rect
           style="fill:#bacfd7;fill-opacity:1;stroke-width:0.0468072;stroke-linecap:round;stroke-linejoin:bevel;paint-order:markers fill stroke"
           id="rect833"
           width="3.7041662"
           height="3.4395833"
           x="4.2333336"
           y="8.4666662" />
        <text
           xml:space="preserve"
           style="font-style:normal;font-variant:normal;font-weight:bold;font-stretch:normal;font-size:2.46944px;line-height:0.85;font-family:'Liberation Sans Narrow';-inkscape-font-specification:'Liberation Sans Narrow Bold';letter-spacing:0.179917px;fill:#b40404;fill-opacity:1;stroke:none;stroke-width:0.264583"
           x="4.4930549"
           y="11.035931"
           id="text970"><tspan
             sodipodi:role="line"
             id="tspan968"
             x="4.4930549"
             y="11.035931"
             style="font-style:normal;font-variant:normal;font-weight:bold;font-stretch:normal;font-size:2.46944px;font-family:'Liberation Sans Narrow';-inkscape-font-specification:'Liberation Sans Narrow Bold';fill:#b40404;fill-opacity:1;stroke-width:0.264583">NA</tspan></text>
      </g>
      <path
         style="fill:none;stroke:#000000;stroke-width:0.264583px;stroke-linecap:butt;stroke-linejoin:round;stroke-opacity:1"
         d="M 2.9104167,8.4666667 V 3.96875 h 3.175 v 3.4395833"
         id="path886"
         sodipodi:nodetypes="cccc" />
      <path
         style="fill:none;stroke:#000000;stroke-width:0.265;stroke-linecap:butt;stroke-linejoin:round;stroke-miterlimit:4;stroke-dasharray:none;stroke-opacity:1;marker-end:url(#Arrow2Mend)"
         d="M 9.2604167,8.4666667 V 3.96875 h -3.175 v 4.2333333"
         id="path888"
         sodipodi:nodetypes="cccc" />
      <rect
         style="fill:#4bf43d;fill-opacity:1;stroke-width:0.0395594;stroke-linecap:round;stroke-linejoin:bevel;paint-order:markers fill stroke"
         id="rect833-3"
         width="2.6458337"
         height="3.4395833"
         x="7.9375"
         y="8.4666662"
         inkscape:transform-center-x="-1.2700772"
         inkscape:transform-center-y="-0.13171495" />
      <rect
         style="fill:#00a629;fill-opacity:1;stroke-width:0.0395594;stroke-linecap:round;stroke-linejoin:bevel;paint-order:markers fill stroke"
         id="rect833-3-5"
         width="2.645833"
         height="3.4395833"
         x="10.583334"
         y="8.4666662" />
      <rect
         style="fill:#00a629;fill-opacity:1;stroke-width:0.0395594;stroke-linecap:round;stroke-linejoin:bevel;paint-order:markers fill stroke"
         id="rect833-3-6"
         width="2.6458333"
         height="3.4395833"
         x="1.5875"
         y="8.4666662" />
      <rect
         style="fill:#4bf43d;fill-opacity:1;stroke-width:0.0395594;stroke-linecap:round;stroke-linejoin:bevel;paint-order:markers fill stroke"
         id="rect833-3-6-2"
         width="2.6458333"
         height="3.4395833"
         x="-1.0583333"
         y="8.4666662" />
      <path
         style="fill:none;stroke:#000000;stroke-width:0.264583px;stroke-linecap:butt;stroke-linejoin:round;stroke-opacity:1"
         d="M 0.26458333,8.4666666 V 3.96875 H 2.9104167"
         id="path1316"
         sodipodi:nodetypes="ccc" />
      <path
         style="fill:none;stroke:#000000;stroke-width:0.264583px;stroke-linecap:butt;stroke-linejoin:round;stroke-opacity:1"
         d="M 11.90625,8.4666667 V 3.96875 c -0.79375,0 -9.8055271,0 -1.852083,0"
         id="path1318"
         sodipodi:nodetypes="ccc" />
      <rect
         style="fill:#37f958;fill-opacity:1;stroke-width:0.0389459;stroke-linecap:round;stroke-linejoin:bevel;paint-order:markers fill stroke"
         id="rect833-1"
         width="3.7041667"
         height="2.3812501"
         x="4.2333331"
         y="2.9104164" />
    </g>
  </g>
</svg>
